<?xml version="1.0" encoding="UTF-8" standalone="no"?>
<!DOCTYPE svg PUBLIC "-//W3C//DTD SVG 20010904//EN"
              "http://www.w3.org/TR/2001/REC-SVG-20010904/DTD/svg10.dtd">

<svg xmlns="http://www.w3.org/2000/svg"
     width="6.26389in" height="0.638889in"
     viewBox="0 0 451 46">
  <path id="Unnamed"
        fill="none" stroke="black" stroke-width="1"
        d="M 440.67,14.67
           C 440.67,14.67 25.33,2.00 7.33,21.33
             11.33,28.00 422.00,11.33 414.67,20.00
             392.67,8.67 32.00,36.67 32.00,36.67" />
</svg>
