<?xml version="1.0" encoding="UTF-8" standalone="no"?>
<!DOCTYPE svg PUBLIC "-//W3C//DTD SVG 20010904//EN"
              "http://www.w3.org/TR/2001/REC-SVG-20010904/DTD/svg10.dtd">

<svg xmlns="http://www.w3.org/2000/svg"
     width="4.86111in" height="3.20833in"
     viewBox="0 0 350 231">
   <path id="right"
         fill="none" stroke="darkslategrey" stroke-width="3"
         d="M 222.50,210.75
            C 222.50,210.75 345.00,11.25 345.00,11.25" />
   <path id="left"
         fill="none" stroke="darkslategrey" stroke-width="3"
         d="M 33.00,12.50
            C 33.00,12.50 172.25,205.75 172.25,205.75
              159.75,167.50 -68.00,46.25 33.00,12.50 Z" />
</svg>
